waves/dm_tb.vcd
$date
	Tue Apr 21 11:52:30 2026
$end
$version
	Icarus Verilog
$end
$timescale
	1ps
$end
$scope module DataMemory_tb $end
$var wire 16 ! mem_read_data [15:0] $end
$var reg 1 " clk $end
$var reg 16 # mem_access_addr [15:0] $end
$var reg 1 $ mem_read $end
$var reg 16 % mem_write_data [15:0] $end
$var reg 1 & mem_write_en $end
$var integer 32 ' fail_count [31:0] $end
$var integer 32 ( test_id [31:0] $end
$scope module uut $end
$var wire 1 " clk $end
$var wire 16 ) mem_access_addr [15:0] $end
$var wire 1 $ mem_read $end
$var wire 16 * mem_write_data [15:0] $end
$var wire 1 & mem_write_en $end
$var wire 3 + ram_addr [2:0] $end
$var wire 16 , mem_read_data [15:0] $end
$var integer 32 - log_fd [31:0] $end
$upscope $end
$upscope $end
$enddefinitions $end
$comment Show the parameter values. $end
$dumpall
$end
#0
$dumpvars
b0 -
b1 ,
b0 +
b0 *
b0 )
b1 (
b0 '
0&
b0 %
1$
b0 #
0"
b1 !
$end
#5000
b10 !
b10 ,
b1 +
b1 #
b1 )
b10 (
1"
#10000
b11 !
b11 ,
b10 +
b10 #
b10 )
b11 (
0"
#15000
b100 !
b100 ,
b11 +
b11 #
b11 )
b100 (
1"
#20000
b101 !
b101 ,
b100 +
b100 #
b100 )
b101 (
0"
#25000
b110 !
b110 ,
b101 +
b101 #
b101 )
b110 (
1"
#30000
b111 !
b111 ,
b110 +
b110 #
b110 )
b111 (
0"
#35000
b1000 !
b1000 ,
b111 +
b111 #
b111 )
b1000 (
1"
#40000
b0 +
b0 !
b0 ,
b1010101111001101 %
b1010101111001101 *
b0 #
b0 )
1&
0$
b1001 (
0"
#45000
1"
#46000
b1010101111001101 !
b1010101111001101 ,
1$
0&
#50000
0"
#51000
b10 !
b10 ,
b1 +
b1011101100000001 %
b1011101100000001 *
b1 #
b1 )
1&
b1010 (
#55000
b1011101100000001 !
b1011101100000001 ,
1"
#56000
0&
#60000
0"
#61000
b11 !
b11 ,
b10 +
b1100110000000010 %
b1100110000000010 *
b10 #
b10 )
1&
b1011 (
#65000
b1100110000000010 !
b1100110000000010 ,
1"
#66000
0&
#70000
0"
#71000
b100 !
b100 ,
b11 +
b1101110100000011 %
b1101110100000011 *
b11 #
b11 )
1&
b1100 (
#75000
b1101110100000011 !
b1101110100000011 ,
1"
#76000
0&
#80000
0"
#81000
b101 !
b101 ,
b100 +
b1110111000000100 %
b1110111000000100 *
b100 #
b100 )
1&
b1101 (
#85000
b1110111000000100 !
b1110111000000100 ,
1"
#86000
0&
#90000
0"
#91000
b110 !
b110 ,
b101 +
b1111111100000101 %
b1111111100000101 *
b101 #
b101 )
1&
b1110 (
#95000
b1111111100000101 !
b1111111100000101 ,
1"
#96000
0&
#100000
0"
#101000
b111 !
b111 ,
b110 +
b1000100000110 %
b1000100000110 *
b110 #
b110 )
1&
b1111 (
#105000
b1000100000110 !
b1000100000110 ,
1"
#106000
0&
#110000
0"
#111000
b1000 !
b1000 ,
b111 +
b10001000000111 %
b10001000000111 *
b111 #
b111 )
1&
b10000 (
#115000
b10001000000111 !
b10001000000111 ,
1"
#116000
0&
#120000
0"
#121000
b0 +
b0 !
b0 ,
b0 #
b0 )
0$
b10001 (
#125000
1"
#126000
b11 +
b11 #
b11 )
b10010 (
#130000
0"
#131000
b1011111011101111 %
b1011111011101111 *
1&
b10011 (
#135000
1"
#136000
b1011111011101111 !
b1011111011101111 ,
1$
0&
#140000
0"
#141000
b1 +
b0 !
b0 ,
b1 #
b1 )
0$
b10100 (
#145000
1"
#146000
b1011101100000001 !
b1011101100000001 ,
1$
#150000
0"
#151000
b0 !
b0 ,
0$
b10101 (
