waves/star.vcd
$date
	Wed Apr 22 15:27:12 2026
$end
$version
	Icarus Verilog
$end
$timescale
	1ps
$end
$scope module StarCore1_tb $end
$var reg 1 ! clk $end
$var integer 32 " fail_count [31:0] $end
$var integer 32 # test_id [31:0] $end
$scope module uut $end
$var wire 1 ! clk $end
$var wire 1 $ reg_write $end
$var wire 1 % reg_dst $end
$var wire 4 & opcode [3:0] $end
$var wire 1 ' mem_write $end
$var wire 1 ( mem_to_reg $end
$var wire 1 ) mem_read $end
$var wire 1 * jump $end
$var wire 1 + bne $end
$var wire 1 , beq $end
$var wire 1 - alu_src $end
$var wire 2 . alu_op [1:0] $end
$scope module CU $end
$var wire 4 / opcode [3:0] $end
$var reg 2 0 alu_op [1:0] $end
$var reg 1 - alu_src $end
$var reg 1 , beq $end
$var reg 1 + bne $end
$var reg 1 * jump $end
$var reg 1 ) mem_read $end
$var reg 1 ( mem_to_reg $end
$var reg 1 ' mem_write $end
$var reg 1 % reg_dst $end
$var reg 1 $ reg_write $end
$upscope $end
$scope module DU $end
$var wire 2 1 alu_op [1:0] $end
$var wire 1 - alu_src $end
$var wire 1 , beq $end
$var wire 1 2 beq_taken $end
$var wire 1 + bne $end
$var wire 1 3 bne_taken $end
$var wire 1 ! clk $end
$var wire 1 * jump $end
$var wire 1 ) mem_read $end
$var wire 1 ( mem_to_reg $end
$var wire 1 ' mem_write $end
$var wire 1 % reg_dst $end
$var wire 1 $ reg_write $end
$var wire 1 4 zero_flag $end
$var wire 3 5 reg_write_dest [2:0] $end
$var wire 16 6 reg_write_data [15:0] $end
$var wire 16 7 reg_read_data_2 [15:0] $end
$var wire 16 8 reg_read_data_1 [15:0] $end
$var wire 3 9 reg_read_addr_2 [2:0] $end
$var wire 3 : reg_read_addr_1 [2:0] $end
$var wire 16 ; pc_next [15:0] $end
$var wire 16 < pc_jump [15:0] $end
$var wire 16 = pc_branch [15:0] $end
$var wire 16 > pc_after_branch [15:0] $end
$var wire 16 ? pc2 [15:0] $end
$var wire 4 @ opcode [3:0] $end
$var wire 16 A mem_read_data [15:0] $end
$var wire 13 B jump_target [12:0] $end
$var wire 16 C instr [15:0] $end
$var wire 16 D ext_im [15:0] $end
$var wire 16 E alu_result [15:0] $end
$var wire 16 F alu_operand_b [15:0] $end
$var wire 3 G alu_control [2:0] $end
$var reg 16 H pc_current [15:0] $end
$scope module alu_ctrl $end
$var wire 2 I ALUOp [1:0] $end
$var wire 4 J Opcode [3:0] $end
$var wire 6 K control_in [5:0] $end
$var reg 3 L ALU_Cnt [2:0] $end
$upscope $end
$scope module alu_unit $end
$var wire 3 M alu_control [2:0] $end
$var wire 16 N b [15:0] $end
$var wire 1 4 zero $end
$var wire 16 O a [15:0] $end
$var reg 16 P result [15:0] $end
$upscope $end
$scope module dm $end
$var wire 1 ! clk $end
$var wire 16 Q mem_access_addr [15:0] $end
$var wire 1 ) mem_read $end
$var wire 1 ' mem_write_en $end
$var wire 3 R ram_addr [2:0] $end
$var wire 16 S mem_write_data [15:0] $end
$var wire 16 T mem_read_data [15:0] $end
$upscope $end
$scope module im $end
$var wire 16 U instruction [15:0] $end
$var wire 16 V pc [15:0] $end
$var wire 4 W rom_addr [3:0] $end
$upscope $end
$scope module reg_file $end
$var wire 1 ! clk $end
$var wire 3 X reg_read_addr_1 [2:0] $end
$var wire 3 Y reg_read_addr_2 [2:0] $end
$var wire 16 Z reg_read_data_1 [15:0] $end
$var wire 16 [ reg_read_data_2 [15:0] $end
$var wire 16 \ reg_write_data [15:0] $end
$var wire 3 ] reg_write_dest [2:0] $end
$var wire 1 $ reg_write_en $end
$var integer 32 ^ i [31:0] $end
$upscope $end
$upscope $end
$upscope $end
$scope task check16 $end
$var reg 16 _ expected [15:0] $end
$var reg 16 ` got [15:0] $end
$var reg 64 a id [63:0] $end
$upscope $end
$upscope $end
$enddefinitions $end
$comment Show the parameter values. $end
$dumpall
$end
#0
$dumpvars
bx a
bx `
bx _
b1000 ^
b0 ]
b1 \
b0 [
b0 Z
b0 Y
b10 X
b0 W
b0 V
b10000000000 U
b1 T
b0 S
b0 R
b0 Q
b0 P
b0 O
b0 N
b0 M
b0 L
b100000 K
b0 J
b10 I
b0 H
b0 G
b0 F
b0 E
b0 D
b10000000000 C
b100000000000 B
b1 A
b0 @
b10 ?
b10 >
b10 =
b100000000000 <
b10 ;
b10 :
b0 9
b0 8
b0 7
b1 6
b0 5
14
03
02
b10 1
b10 0
b0 /
b10 .
1-
0,
0+
0*
1)
1(
0'
b0 &
0%
1$
b1 #
b0 "
0!
$end
#5000
b10 6
b10 \
b10 A
b10 T
b1 R
04
b1 E
b1 P
b1 Q
b100010000010 <
b1 F
b1 N
b100010000010 B
b1 D
b1 5
b1 ]
b1 9
b1 Y
b100 ;
b10001000001 C
b10001000001 U
b100 >
b1 W
b0 7
b0 S
b0 [
b110 =
b100 ?
b10 H
b10 V
1!
#10000
0!
#15000
b11 R
b10100000 <
b11 E
b11 P
b11 Q
b10 5
b10 ]
b0 A
b0 T
b11 6
b11 \
b10 F
b10 N
b10100000 B
b10 K
b10000 D
b1 8
b1 O
b1 Z
1%
b0 .
b0 0
b0 1
b0 I
0)
1$
0(
0-
b10 J
b0 :
b0 X
b10 &
b10 /
b10 @
b110 ;
b10000001010000 C
b10000001010000 U
b110 >
b10 W
b100110 =
b110 ?
b100 H
b100 V
b10 7
b10 S
b10 [
1!
#20000
0!
#25000
b10 R
b10 6
b10 \
b10100000000 <
b10 E
b10 P
b10 Q
b0 F
b0 N
b10100000000 B
b100001 K
b0 D
b11 7
b11 S
b11 [
b10 8
b10 O
b10 Z
b10 .
b10 0
b10 1
b10 I
1'
1-
0$
0%
b1 J
b10 9
b10 Y
b1 :
b1 X
b1 &
b1 /
b1 @
b1000 ;
b1001010000000 C
b1001010000000 U
b1000 >
b11 W
b1000 =
b1000 ?
b110 H
b110 V
1!
#30000
0!
#35000
b111 R
b1111111111111111 6
b1111111111111111 \
b10100000 <
b1 G
b1 L
b1 M
b1111111111111111 E
b1111111111111111 P
b1111111111111111 Q
b10 F
b10 N
b10100000 B
b11 K
b10000 D
b10 7
b10 S
b10 [
b1 8
b1 O
b1 Z
1$
1%
b0 .
b0 0
b0 1
b0 I
0'
0-
b11 J
b1 9
b1 Y
b0 :
b0 X
b11 &
b11 /
b11 @
b1010 ;
b11000001010000 C
b11000001010000 U
b1010 >
b100 W
b101010 =
b1010 ?
b1000 H
b1000 V
1!
#40000
0!
#45000
b0 R
b0 6
b0 \
14
b0 E
b0 P
b0 Q
b101 G
b101 L
b101 M
b111 K
1$
1%
b111 J
b111 &
b111 /
b111 @
b1100 ;
b111000001010000 C
b111000001010000 U
b1100 >
b101 W
b101100 =
b1100 ?
b1010 H
b1010 V
1!
#50000
0!
#55000
b11 R
b11 6
b11 \
04
b11 E
b11 P
b11 Q
b110 G
b110 L
b110 M
b1000 K
1$
1%
b1000 J
b1000 &
b1000 /
b1000 @
b1110 ;
b1000000001010000 C
b1000000001010000 U
b1110 >
b110 W
b101110 =
b1110 ?
b1100 H
b1100 V
1!
#60000
0!
#65000
b1 R
b1 6
b1 \
b1 E
b1 P
b1 Q
b111 G
b111 L
b111 M
b1001 K
1$
1%
b1001 J
b1001 &
b1001 /
b1001 @
b10000 ;
b1001000001010000 C
b1001000001010000 U
b10000 >
b111 W
b110000 =
b10000 ?
b1110 H
b1110 V
1!
#70000
0!
#75000
b10 R
b10 6
b10 \
b10 E
b10 P
b10 Q
b0 <
b0 G
b0 L
b0 M
b1 F
b1 N
b0 B
b10 K
b0 D
b1 7
b1 S
b1 [
b0 5
b0 ]
1$
1%
b10 J
b0 9
b0 Y
b10 &
b10 /
b10 @
b10010 ;
b10000000000000 C
b10000000000000 U
b10010 >
b1000 W
b10010 =
b10010 ?
b10000 H
b10000 V
1!
#80000
0!
#85000
12
14
b10000010 <
b1 G
b1 L
b1 M
b1 5
b1 ]
b10000010 B
b11011 K
b1 D
b1 .
b1 0
b1 1
b1 I
1,
0$
0%
b1011 J
b1 9
b1 Y
b1011 &
b1011 /
b1011 @
b0 R
b0 6
b0 \
b10110 ;
b1011000001000001 C
b1011000001000001 U
b0 E
b0 P
b0 Q
b10 F
b10 N
b10110 >
b1001 W
b10 8
b10 O
b10 Z
b10 7
b10 S
b10 [
b10110 =
b10100 ?
b10010 H
b10010 V
1!
#90000
0!
#95000
b100 R
b100 6
b100 \
04
b100 E
b100 P
b100 Q
b0 <
b0 G
b0 L
b0 M
02
b0 B
b1101 K
b0 D
b0 5
b0 ]
1*
b0 .
b0 0
b0 1
b0 I
0,
b1101 J
b0 9
b0 Y
b1101 &
b1101 /
b1101 @
b0 ;
b1101000000000000 C
b1101000000000000 U
b11000 >
b1011 W
b11000 =
b11000 ?
b10110 H
b10110 V
1!
#100000
0!
#105000
b1 R
b100000000000 <
b1 E
b1 P
b1 Q
b10 A
b10 T
b10 6
b10 \
b0 F
b0 N
b10 ;
b100000000000 B
b100000 K
b1 8
b1 O
b1 Z
b10 .
b10 0
b10 1
b10 I
1)
1$
1(
1-
0*
b0 J
b10 :
b10 X
b0 &
b0 /
b0 @
b10000000000 C
b10000000000 U
b10 >
b0 W
b10 =
b10 ?
b0 H
b0 V
1!
#110000
0!
#115000
b11 6
b11 \
b11 A
b11 T
b10 R
b10 E
b10 P
b10 Q
b100010000010 <
b1 F
b1 N
b100010000010 B
b1 D
b1 5
b1 ]
b1 9
b1 Y
b100 ;
b10001000001 C
b10001000001 U
b100 >
b1 W
b110 =
b100 ?
b10 H
b10 V
1!
#120000
0!
#125000
b101 R
b10100000 <
b101 E
b101 P
b101 Q
b10 5
b10 ]
b0 A
b0 T
b101 6
b101 \
b11 F
b11 N
b10100000 B
b10 K
b10000 D
b10 8
b10 O
b10 Z
1%
b0 .
b0 0
b0 1
b0 I
0)
1$
0(
0-
b10 J
b0 :
b0 X
b10 &
b10 /
b10 @
b110 ;
b10000001010000 C
b10000001010000 U
b110 >
b10 W
b11 7
b11 S
b11 [
b100110 =
b110 ?
b100 H
b100 V
1!
#130000
0!
#135000
b11 R
b11 6
b11 \
b10100000000 <
b11 E
b11 P
b11 Q
b0 F
b0 N
b10100000000 B
b100001 K
b0 D
b101 7
b101 S
b101 [
b11 8
b11 O
b11 Z
b10 .
b10 0
b10 1
b10 I
1'
1-
0$
0%
b1 J
b10 9
b10 Y
b1 :
b1 X
b1 &
b1 /
b1 @
b1000 ;
b1001010000000 C
b1001010000000 U
b1000 >
b11 W
b1000 =
b1000 ?
b110 H
b110 V
1!
#140000
0!
#145000
b111 R
b1111111111111111 6
b1111111111111111 \
b10100000 <
b1 G
b1 L
b1 M
b1111111111111111 E
b1111111111111111 P
b1111111111111111 Q
b11 F
b11 N
b10100000 B
b11 K
b10000 D
b11 7
b11 S
b11 [
b10 8
b10 O
b10 Z
1$
1%
b0 .
b0 0
b0 1
b0 I
0'
0-
b11 J
b1 9
b1 Y
b0 :
b0 X
b11 &
b11 /
b11 @
b1010 ;
b11000001010000 C
b11000001010000 U
b1010 >
b100 W
b101010 =
b1010 ?
b1000 H
b1000 V
1!
#150000
0!
#155000
b10 R
b10 6
b10 \
b10 E
b10 P
b10 Q
b101 G
b101 L
b101 M
b111 K
1$
1%
b111 J
b111 &
b111 /
b111 @
b1100 ;
b111000001010000 C
b111000001010000 U
b1100 >
b101 W
b101100 =
b1100 ?
b1010 H
b1010 V
1!
#160000
0!
#165000
b11 R
b11 6
b11 \
b11 E
b11 P
b11 Q
b110 G
b110 L
b110 M
b1000 K
1$
1%
b1000 J
b1000 &
b1000 /
b1000 @
b1110 ;
b1000000001010000 C
b1000000001010000 U
b1110 >
b110 W
b101110 =
b1110 ?
b1100 H
b1100 V
1!
#170000
0!
#175000
b1 R
b1 6
b1 \
b1 E
b1 P
b1 Q
b111 G
b111 L
b111 M
b1001 K
1$
1%
b1001 J
b1001 &
b1001 /
b1001 @
b10000 ;
b1001000001010000 C
b1001000001010000 U
b10000 >
b111 W
b110000 =
b10000 ?
b1110 H
b1110 V
1!
#180000
0!
#185000
b100 R
b100 6
b100 \
b100 E
b100 P
b100 Q
b0 <
b0 G
b0 L
b0 M
b10 F
b10 N
b0 B
b10 K
b0 D
b10 7
b10 S
b10 [
b0 5
b0 ]
1$
1%
b10 J
b0 9
b0 Y
b10 &
b10 /
b10 @
b10010 ;
b10000000000000 C
b10000000000000 U
b10010 >
b1000 W
b10010 =
b10010 ?
b10000 H
b10000 V
1!
#190000
0!
#195000
b10000010 <
b1 G
b1 L
b1 M
b1 5
b1 ]
b10000010 B
b11011 K
b1 D
b1 .
b1 0
b1 1
b1 I
1,
0$
0%
b1011 J
b1 9
b1 Y
b1011 &
b1011 /
b1011 @
b10100 ;
b1011000001000001 C
b1011000001000001 U
b1 R
b1 6
b1 \
b10100 >
b1001 W
b1 E
b1 P
b1 Q
b11 F
b11 N
b10110 =
b10100 ?
b10010 H
b10010 V
b100 8
b100 O
b100 Z
b11 7
b11 S
b11 [
1!
#200000
0!
#205000
b10000000 <
13
b10000000 B
b11100 K
b0 D
1+
b1 .
b1 0
b1 1
b1 I
0,
b1100 J
b1100 &
b1100 /
b1100 @
b10110 ;
b1100000001000000 C
b1100000001000000 U
b10110 >
b1010 W
b10110 =
b10110 ?
b10100 H
b10100 V
1!
#210000
0!
#215000
b0 R
b1000 6
b1000 \
b1000 E
b1000 P
b1000 Q
b0 <
b0 G
b0 L
b0 M
b100 F
b100 N
03
b0 B
b1101 K
b100 7
b100 S
b100 [
b0 5
b0 ]
1*
b0 .
b0 0
b0 1
b0 I
0+
b1101 J
b0 9
b0 Y
b1101 &
b1101 /
b1101 @
b0 ;
b1101000000000000 C
b1101000000000000 U
b11000 >
b1011 W
b11000 =
b11000 ?
b10110 H
b10110 V
1!
#220000
0!
#225000
b1 R
b100000000000 <
b1 E
b1 P
b1 Q
b10 A
b10 T
b10 6
b10 \
b0 F
b0 N
b10 ;
b100000000000 B
b100000 K
b1 8
b1 O
b1 Z
b10 .
b10 0
b10 1
b10 I
1)
1$
1(
1-
0*
b0 J
b10 :
b10 X
b0 &
b0 /
b0 @
b10000000000 C
b10000000000 U
b10 >
b0 W
b10 =
b10 ?
b0 H
b0 V
1!
#230000
0!
#235000
b11 6
b11 \
b11 A
b11 T
b10 R
b10 E
b10 P
b10 Q
b100010000010 <
b1 F
b1 N
b100010000010 B
b1 D
b1 5
b1 ]
b1 9
b1 Y
b100 ;
b10001000001 C
b10001000001 U
b100 >
b1 W
b110 =
b100 ?
b10 H
b10 V
b11 7
b11 S
b11 [
1!
#240000
0!
#245000
b101 R
b10100000 <
b101 E
b101 P
b101 Q
b10 5
b10 ]
b0 A
b0 T
b101 6
b101 \
b11 F
b11 N
b10100000 B
b10 K
b10000 D
b10 8
b10 O
b10 Z
1%
b0 .
b0 0
b0 1
b0 I
0)
1$
0(
0-
b10 J
b0 :
b0 X
b10 &
b10 /
b10 @
b110 ;
b10000001010000 C
b10000001010000 U
b110 >
b10 W
b100110 =
b110 ?
b100 H
b100 V
1!
#250000
0!
#255000
b11 R
b11 6
b11 \
b10100000000 <
b11 E
b11 P
b11 Q
b0 F
b0 N
b10100000000 B
b100001 K
b0 D
b101 7
b101 S
b101 [
b11 8
b11 O
b11 Z
b10 .
b10 0
b10 1
b10 I
1'
1-
0$
0%
b1 J
b10 9
b10 Y
b1 :
b1 X
b1 &
b1 /
b1 @
b1000 ;
b1001010000000 C
b1001010000000 U
b1000 >
b11 W
b1000 =
b1000 ?
b110 H
b110 V
1!
#260000
0!
#265000
b111 R
b1111111111111111 6
b1111111111111111 \
b10100000 <
b1 G
b1 L
b1 M
b1111111111111111 E
b1111111111111111 P
b1111111111111111 Q
b11 F
b11 N
b10100000 B
b11 K
b10000 D
b11 7
b11 S
b11 [
b10 8
b10 O
b10 Z
1$
1%
b0 .
b0 0
b0 1
b0 I
0'
0-
b11 J
b1 9
b1 Y
b0 :
b0 X
b11 &
b11 /
b11 @
b1010 ;
b11000001010000 C
b11000001010000 U
b1010 >
b100 W
b101010 =
b1010 ?
b1000 H
b1000 V
1!
#270000
0!
#275000
b10 R
b10 6
b10 \
b10 E
b10 P
b10 Q
b101 G
b101 L
b101 M
b111 K
1$
1%
b111 J
b111 &
b111 /
b111 @
b1100 ;
b111000001010000 C
b111000001010000 U
b1100 >
b101 W
b101100 =
b1100 ?
b1010 H
b1010 V
1!
#280000
0!
#285000
b11 R
b11 6
b11 \
b11 E
b11 P
b11 Q
b110 G
b110 L
b110 M
b1000 K
1$
1%
b1000 J
b1000 &
b1000 /
b1000 @
b1110 ;
b1000000001010000 C
b1000000001010000 U
b1110 >
b110 W
b101110 =
b1110 ?
b1100 H
b1100 V
1!
#290000
0!
#295000
b1 R
b1 6
b1 \
b1 E
b1 P
b1 Q
b111 G
b111 L
b111 M
b1001 K
1$
1%
b1001 J
b1001 &
b1001 /
b1001 @
b10000 ;
b1001000001010000 C
b1001000001010000 U
b10000 >
b111 W
b110000 =
b10000 ?
b1110 H
b1110 V
1!
#300000
0!
#305000
b100 R
b100 6
b100 \
b100 E
b100 P
b100 Q
b0 <
b0 G
b0 L
b0 M
b10 F
b10 N
b0 B
b10 K
b0 D
b10 7
b10 S
b10 [
b0 5
b0 ]
1$
1%
b10 J
b0 9
b0 Y
b10 &
b10 /
b10 @
b10010 ;
b10000000000000 C
b10000000000000 U
b10010 >
b1000 W
b10010 =
b10010 ?
b10000 H
b10000 V
1!
#310000
0!
#315000
b10000010 <
b1 G
b1 L
b1 M
b1 5
b1 ]
b10000010 B
b11011 K
b1 D
b1 .
b1 0
b1 1
b1 I
1,
0$
0%
b1011 J
b1 9
b1 Y
b1011 &
b1011 /
b1011 @
b10100 ;
b1011000001000001 C
b1011000001000001 U
b1 R
b1 6
b1 \
b10100 >
b1001 W
b1 E
b1 P
b1 Q
b11 F
b11 N
b10110 =
b10100 ?
b10010 H
b10010 V
b100 8
b100 O
b100 Z
b11 7
b11 S
b11 [
1!
#320000
0!
#325000
b10000000 <
13
b10000000 B
b11100 K
b0 D
1+
b1 .
b1 0
b1 1
b1 I
0,
b1100 J
b1100 &
b1100 /
b1100 @
b10110 ;
b1100000001000000 C
b1100000001000000 U
b10110 >
b1010 W
b10110 =
b10110 ?
b10100 H
b10100 V
1!
#330000
0!
#335000
b0 R
b1000 6
b1000 \
b1000 E
b1000 P
b1000 Q
b0 <
b0 G
b0 L
b0 M
b100 F
b100 N
03
b0 B
b1101 K
b100 7
b100 S
b100 [
b0 5
b0 ]
1*
b0 .
b0 0
b0 1
b0 I
0+
b1101 J
b0 9
b0 Y
b1101 &
b1101 /
b1101 @
b0 ;
b1101000000000000 C
b1101000000000000 U
b11000 >
b1011 W
b11000 =
b11000 ?
b10110 H
b10110 V
1!
#340000
0!
#345000
b1 R
b100000000000 <
b1 E
b1 P
b1 Q
b10 A
b10 T
b10 6
b10 \
b0 F
b0 N
b10 ;
b100000000000 B
b100000 K
b1 8
b1 O
b1 Z
b10 .
b10 0
b10 1
b10 I
1)
1$
1(
1-
0*
b0 J
b10 :
b10 X
b0 &
b0 /
b0 @
b10000000000 C
b10000000000 U
b10 >
b0 W
b10 =
b10 ?
b0 H
b0 V
1!
#350000
0!
#355000
b11 6
b11 \
b11 A
b11 T
b10 R
b10 E
b10 P
b10 Q
b100010000010 <
b1 F
b1 N
b100010000010 B
b1 D
b1 5
b1 ]
b1 9
b1 Y
b100 ;
b10001000001 C
b10001000001 U
b100 >
b1 W
b110 =
b100 ?
b10 H
b10 V
b11 7
b11 S
b11 [
1!
#360000
0!
#365000
b101 R
b10100000 <
b101 E
b101 P
b101 Q
b10 5
b10 ]
b0 A
b0 T
b101 6
b101 \
b11 F
b11 N
b10100000 B
b10 K
b10000 D
b10 8
b10 O
b10 Z
1%
b0 .
b0 0
b0 1
b0 I
0)
1$
0(
0-
b10 J
b0 :
b0 X
b10 &
b10 /
b10 @
b110 ;
b10000001010000 C
b10000001010000 U
b110 >
b10 W
b100110 =
b110 ?
b100 H
b100 V
1!
#370000
0!
#375000
b11 R
b11 6
b11 \
b10100000000 <
b11 E
b11 P
b11 Q
b0 F
b0 N
b10100000000 B
b100001 K
b0 D
b101 7
b101 S
b101 [
b11 8
b11 O
b11 Z
b10 .
b10 0
b10 1
b10 I
1'
1-
0$
0%
b1 J
b10 9
b10 Y
b1 :
b1 X
b1 &
b1 /
b1 @
b1000 ;
b1001010000000 C
b1001010000000 U
b1000 >
b11 W
b1000 =
b1000 ?
b110 H
b110 V
1!
#380000
0!
#385000
b111 R
b1111111111111111 6
b1111111111111111 \
b10100000 <
b1 G
b1 L
b1 M
b1111111111111111 E
b1111111111111111 P
b1111111111111111 Q
b11 F
b11 N
b10100000 B
b11 K
b10000 D
b11 7
b11 S
b11 [
b10 8
b10 O
b10 Z
1$
1%
b0 .
b0 0
b0 1
b0 I
0'
0-
b11 J
b1 9
b1 Y
b0 :
b0 X
b11 &
b11 /
b11 @
b1010 ;
b11000001010000 C
b11000001010000 U
b1010 >
b100 W
b101010 =
b1010 ?
b1000 H
b1000 V
1!
#390000
0!
#395000
b10 R
b10 6
b10 \
b10 E
b10 P
b10 Q
b101 G
b101 L
b101 M
b111 K
1$
1%
b111 J
b111 &
b111 /
b111 @
b1100 ;
b111000001010000 C
b111000001010000 U
b1100 >
b101 W
b101100 =
b1100 ?
b1010 H
b1010 V
1!
#400000
0!
#405000
b11 R
b11 6
b11 \
b11 E
b11 P
b11 Q
b110 G
b110 L
b110 M
b1000 K
1$
1%
b1000 J
b1000 &
b1000 /
b1000 @
b1110 ;
b1000000001010000 C
b1000000001010000 U
b1110 >
b110 W
b101110 =
b1110 ?
b1100 H
b1100 V
1!
#410000
0!
#415000
b1 R
b1 6
b1 \
b1 E
b1 P
b1 Q
b111 G
b111 L
b111 M
b1001 K
1$
1%
b1001 J
b1001 &
b1001 /
b1001 @
b10000 ;
b1001000001010000 C
b1001000001010000 U
b10000 >
b111 W
b110000 =
b10000 ?
b1110 H
b1110 V
1!
#420000
0!
#425000
b100 R
b100 6
b100 \
b100 E
b100 P
b100 Q
b0 <
b0 G
b0 L
b0 M
b10 F
b10 N
b0 B
b10 K
b0 D
b10 7
b10 S
b10 [
b0 5
b0 ]
1$
1%
b10 J
b0 9
b0 Y
b10 &
b10 /
b10 @
b10010 ;
b10000000000000 C
b10000000000000 U
b10010 >
b1000 W
b10010 =
b10010 ?
b10000 H
b10000 V
1!
#430000
0!
#435000
b10000010 <
b1 G
b1 L
b1 M
b1 5
b1 ]
b10000010 B
b11011 K
b1 D
b1 .
b1 0
b1 1
b1 I
1,
0$
0%
b1011 J
b1 9
b1 Y
b1011 &
b1011 /
b1011 @
b10100 ;
b1011000001000001 C
b1011000001000001 U
b1 R
b1 6
b1 \
b10100 >
b1001 W
b1 E
b1 P
b1 Q
b11 F
b11 N
b10110 =
b10100 ?
b10010 H
b10010 V
b100 8
b100 O
b100 Z
b11 7
b11 S
b11 [
1!
#440000
0!
#445000
b10000000 <
13
b10000000 B
b11100 K
b0 D
1+
b1 .
b1 0
b1 1
b1 I
0,
b1100 J
b1100 &
b1100 /
b1100 @
b10110 ;
b1100000001000000 C
b1100000001000000 U
b10110 >
b1010 W
b10110 =
b10110 ?
b10100 H
b10100 V
1!
#450000
0!
#455000
b0 R
b1000 6
b1000 \
b1000 E
b1000 P
b1000 Q
b0 <
b0 G
b0 L
b0 M
b100 F
b100 N
03
b0 B
b1101 K
b100 7
b100 S
b100 [
b0 5
b0 ]
1*
b0 .
b0 0
b0 1
b0 I
0+
b1101 J
b0 9
b0 Y
b1101 &
b1101 /
b1101 @
b0 ;
b1101000000000000 C
b1101000000000000 U
b11000 >
b1011 W
b11000 =
b11000 ?
b10110 H
b10110 V
1!
#460000
0!
#465000
b1 R
b100000000000 <
b1 E
b1 P
b1 Q
b10 A
b10 T
b10 6
b10 \
b0 F
b0 N
b10 ;
b100000000000 B
b100000 K
b1 8
b1 O
b1 Z
b10 .
b10 0
b10 1
b10 I
1)
1$
1(
1-
0*
b0 J
b10 :
b10 X
b0 &
b0 /
b0 @
b10000000000 C
b10000000000 U
b10 >
b0 W
b10 =
b10 ?
b0 H
b0 V
1!
#470000
0!
#475000
b11 6
b11 \
b11 A
b11 T
b10 R
b10 E
b10 P
b10 Q
b100010000010 <
b1 F
b1 N
b100010000010 B
b1 D
b1 5
b1 ]
b1 9
b1 Y
b100 ;
b10001000001 C
b10001000001 U
b100 >
b1 W
b110 =
b100 ?
b10 H
b10 V
b11 7
b11 S
b11 [
1!
#480000
0!
#485000
b101 R
b10100000 <
b101 E
b101 P
b101 Q
b10 5
b10 ]
b0 A
b0 T
b101 6
b101 \
b11 F
b11 N
b10100000 B
b10 K
b10000 D
b10 8
b10 O
b10 Z
1%
b0 .
b0 0
b0 1
b0 I
0)
1$
0(
0-
b10 J
b0 :
b0 X
b10 &
b10 /
b10 @
b110 ;
b10000001010000 C
b10000001010000 U
b110 >
b10 W
b100110 =
b110 ?
b100 H
b100 V
1!
#490000
0!
#495000
b11 R
b11 6
b11 \
b10100000000 <
b11 E
b11 P
b11 Q
b0 F
b0 N
b10100000000 B
b100001 K
b0 D
b101 7
b101 S
b101 [
b11 8
b11 O
b11 Z
b10 .
b10 0
b10 1
b10 I
1'
1-
0$
0%
b1 J
b10 9
b10 Y
b1 :
b1 X
b1 &
b1 /
b1 @
b1000 ;
b1001010000000 C
b1001010000000 U
b1000 >
b11 W
b1000 =
b1000 ?
b110 H
b110 V
1!
#500000
0!
#505000
b111 R
b1111111111111111 6
b1111111111111111 \
b10100000 <
b1 G
b1 L
b1 M
b1111111111111111 E
b1111111111111111 P
b1111111111111111 Q
b11 F
b11 N
b10100000 B
b11 K
b10000 D
b11 7
b11 S
b11 [
b10 8
b10 O
b10 Z
1$
1%
b0 .
b0 0
b0 1
b0 I
0'
0-
b11 J
b1 9
b1 Y
b0 :
b0 X
b11 &
b11 /
b11 @
b1010 ;
b11000001010000 C
b11000001010000 U
b1010 >
b100 W
b101010 =
b1010 ?
b1000 H
b1000 V
1!
#510000
0!
#515000
b10 R
b10 6
b10 \
b10 E
b10 P
b10 Q
b101 G
b101 L
b101 M
b111 K
1$
1%
b111 J
b111 &
b111 /
b111 @
b1100 ;
b111000001010000 C
b111000001010000 U
b1100 >
b101 W
b101100 =
b1100 ?
b1010 H
b1010 V
1!
#520000
0!
#525000
b11 R
b11 6
b11 \
b11 E
b11 P
b11 Q
b110 G
b110 L
b110 M
b1000 K
1$
1%
b1000 J
b1000 &
b1000 /
b1000 @
b1110 ;
b1000000001010000 C
b1000000001010000 U
b1110 >
b110 W
b101110 =
b1110 ?
b1100 H
b1100 V
1!
#530000
0!
#535000
b1 R
b1 6
b1 \
b1 E
b1 P
b1 Q
b111 G
b111 L
b111 M
b1001 K
1$
1%
b1001 J
b1001 &
b1001 /
b1001 @
b10000 ;
b1001000001010000 C
b1001000001010000 U
b10000 >
b111 W
b110000 =
b10000 ?
b1110 H
b1110 V
1!
#540000
0!
#545000
b100 R
b100 6
b100 \
b100 E
b100 P
b100 Q
b0 <
b0 G
b0 L
b0 M
b10 F
b10 N
b0 B
b10 K
b0 D
b10 7
b10 S
b10 [
b0 5
b0 ]
1$
1%
b10 J
b0 9
b0 Y
b10 &
b10 /
b10 @
b10010 ;
b10000000000000 C
b10000000000000 U
b10010 >
b1000 W
b10010 =
b10010 ?
b10000 H
b10000 V
1!
#550000
0!
#555000
b10000010 <
b1 G
b1 L
b1 M
b1 5
b1 ]
b10000010 B
b11011 K
b1 D
b1 .
b1 0
b1 1
b1 I
1,
0$
0%
b1011 J
b1 9
b1 Y
b1011 &
b1011 /
b1011 @
b10100 ;
b1011000001000001 C
b1011000001000001 U
b1 R
b1 6
b1 \
b10100 >
b1001 W
b1 E
b1 P
b1 Q
b11 F
b11 N
b10110 =
b10100 ?
b10010 H
b10010 V
b100 8
b100 O
b100 Z
b11 7
b11 S
b11 [
1!
#560000
0!
#565000
b10000000 <
13
b10000000 B
b11100 K
b0 D
1+
b1 .
b1 0
b1 1
b1 I
0,
b1100 J
b1100 &
b1100 /
b1100 @
b10110 ;
b1100000001000000 C
b1100000001000000 U
b10110 >
b1010 W
b10110 =
b10110 ?
b10100 H
b10100 V
1!
#570000
0!
#575000
b0 R
b1000 6
b1000 \
b1000 E
b1000 P
b1000 Q
b0 <
b0 G
b0 L
b0 M
b100 F
b100 N
03
b0 B
b1101 K
b100 7
b100 S
b100 [
b0 5
b0 ]
1*
b0 .
b0 0
b0 1
b0 I
0+
b1101 J
b0 9
b0 Y
b1101 &
b1101 /
b1101 @
b0 ;
b1101000000000000 C
b1101000000000000 U
b11000 >
b1011 W
b11000 =
b11000 ?
b10110 H
b10110 V
1!
#580000
0!
#585000
b1 R
b100000000000 <
b1 E
b1 P
b1 Q
b10 A
b10 T
b10 6
b10 \
b0 F
b0 N
b10 ;
b100000000000 B
b100000 K
b1 8
b1 O
b1 Z
b10 .
b10 0
b10 1
b10 I
1)
1$
1(
1-
0*
b0 J
b10 :
b10 X
b0 &
b0 /
b0 @
b10000000000 C
b10000000000 U
b10 >
b0 W
b10 =
b10 ?
b0 H
b0 V
1!
#590000
0!
#595000
b11 6
b11 \
b11 A
b11 T
b10 R
b10 E
b10 P
b10 Q
b100010000010 <
b1 F
b1 N
b100010000010 B
b1 D
b1 5
b1 ]
b1 9
b1 Y
b100 ;
b10001000001 C
b10001000001 U
b100 >
b1 W
b110 =
b100 ?
b10 H
b10 V
b11 7
b11 S
b11 [
1!
#600000
0!
